[
  {
    "CelebrityName" : "Gwyneth Paltrow",
    "CelebrityAddress" : "6931 Hollywood Blvd",
    "CelebrityLocation" : "34.1019335,-118.3413562"
  },
  {
    "CelebrityName" : " George Harrison",
    "CelebrityAddress" : "1750 Vine Street",
    "CelebrityLocation" : "34.1032104,-118.326293"
  },
  {
    "CelebrityName" : " Ringo Star",
    "CelebrityAddress" : "1750 Vine Street",
    "CelebrityLocation" : "34.1032104,-118.326293"
  },
  {
    "CelebrityName" : "Lassie",
    "CelebrityAddress" : "6368 Hollywood Blvd",
    "CelebrityLocation" : "34.1013329,-118.328962"
  },
  {
    "CelebrityName" : "The Doors",
    "CelebrityAddress" : "6901 Hollywood Blvd",
    "CelebrityLocation" : "34.10155719999999,-118.3401645"
  },
  {
    "CelebrityName" : " Frank Sinatra",
    "CelebrityAddress" : "1637 Vine Street",
    "CelebrityLocation" : "34.1009204,-118.3270635"
  },
  {
    "CelebrityName" : "Michael Jackson",
    "CelebrityAddress" : "6927 Hollywood Blvd",
    "CelebrityLocation" : "34.1015615,-118.3413116"
  },
  {
    "CelebrityName" : "Jay Leno",
    "CelebrityAddress" : "6780 Hollywood Blvd",
    "CelebrityLocation" : "34.1013355,-118.3384643"
  },
  {
    "CelebrityName" : " Rita Hayworth",
    "CelebrityAddress" : "1645 Vine Street",
    "CelebrityLocation" : "34.101276,-118.327091"
  },
  {
    "CelebrityName" : "Kevin Spacey",
    "CelebrityAddress" : "6801 Hollywood Blvd",
    "CelebrityLocation" : "34.1026261,-118.3403754"
  },
  {
    "CelebrityName" : "Russell Crowe",
    "CelebrityAddress" : "6801 Hollywood Blvd",
    "CelebrityLocation" : "34.1026261,-118.3403754"
  },
  {
    "CelebrityName" : " Lionel Barrymore",
    "CelebrityAddress" : "1724 Vine Street",
    "CelebrityLocation" : "34.1026852,-118.3266665"
  },
  {
    "CelebrityName" : "Robert Young",
    "CelebrityAddress" : "6360 Hollywood Blvd",
    "CelebrityLocation" : "34.101266,-118.328678"
  },
  {
    "CelebrityName" : "Rudolph Valentino",
    "CelebrityAddress" : "6164 Hollywood Blvd",
    "CelebrityLocation" : "34.1016283,-118.3243669"
  },
  {
    "CelebrityName" : "; odd-numbered addresses are located on the west side.)",
    "CelebrityAddress" : "e of Vine Street",
    "CelebrityLocation" : "34.0969243,-118.3266505"
  },
  {
    "CelebrityName" : "Mel Brooks",
    "CelebrityAddress" : "6712 Hollywood Blvd",
    "CelebrityLocation" : "34.1014167,-118.3365429"
  },
  {
    "CelebrityName" : "Groucho Marx",
    "CelebrityAddress" : "6821 Hollywood Blvd",
    "CelebrityLocation" : "34.1015594,-118.3392858"
  },
  {
    "CelebrityName" : " Cecil B. De Mille",
    "CelebrityAddress" : "1725 Vine Street",
    "CelebrityLocation" : "34.1023169,-118.3267012"
  },
  {
    "CelebrityName" : " Buddy Holly",
    "CelebrityAddress" : "1750 Vine Street",
    "CelebrityLocation" : "34.1032104,-118.326293"
  },
  {
    "CelebrityName" : "Vin Diesel",
    "CelebrityAddress" : "7000 Hollywood Blvd",
    "CelebrityLocation" : "34.1012777,-118.3416128"
  },
  {
    "CelebrityName" : "Paul McCartney",
    "CelebrityAddress" : "6666 Hollywood Blvd",
    "CelebrityLocation" : "34.1015485,-118.3354444"
  },
  {
    "CelebrityName" : "Robin Williams",
    "CelebrityAddress" : "6925 Hollywood Blvd",
    "CelebrityLocation" : "34.101765,-118.3408824"
  },
  {
    "CelebrityName" : "Laurence Olivier",
    "CelebrityAddress" : "6319 Hollywood Blvd",
    "CelebrityLocation" : "34.101966,-118.327514"
  },
  {
    "CelebrityName" : "Johnny Depp",
    "CelebrityAddress" : "7018 Hollywood Blvd",
    "CelebrityLocation" : "34.101318,-118.3420857"
  },
  {
    "CelebrityName" : "Jamie Foxx",
    "CelebrityAddress" : "6801 Hollywood Blvd",
    "CelebrityLocation" : "34.1026261,-118.3403754"
  },
  {
    "CelebrityName" : "Vincent Price",
    "CelebrityAddress" : "6201 Hollywood Blvd",
    "CelebrityLocation" : "34.102266,-118.324823"
  },
  {
    "CelebrityName" : "Boyz II Men",
    "CelebrityAddress" : "7060 Hollywood Blvd",
    "CelebrityLocation" : "34.1012789,-118.3437155"
  },
  {
    "CelebrityName" : "Ricky Nelson",
    "CelebrityAddress" : "1515 Vine Street",
    "CelebrityLocation" : "34.0985306,-118.3266821"
  },
  {
    "CelebrityName" : "Jack Lemmon",
    "CelebrityAddress" : "6357 Hollywood Blvd",
    "CelebrityLocation" : "34.1016244,-118.3286581"
  },
  {
    "CelebrityName" : " John Lennon",
    "CelebrityAddress" : "1750 Vine Street",
    "CelebrityLocation" : "34.1032104,-118.326293"
  },
###




  {
    "CelebrityName" : "Walt Disney",
    "CelebrityAddress" : "7021 Hollywood Blvd",
    "CelebrityLocation" : "34.1023128,-118.3427565"
  },
  {
    "CelebrityName" : " Bryan Cranston",
    "CelebrityAddress" : "1717 Vine Street",
    "CelebrityLocation" : "34.1022854,-118.3270364"
  },
  {
    "CelebrityName" : " Shirley Jones",
    "CelebrityAddress" : "1541 Vine Street",
    "CelebrityLocation" : "34.0988203,-118.3266836"
  },
  {
    "CelebrityName" : "Robert Duvall",
    "CelebrityAddress" : "6801 Hollywood Blvd",
    "CelebrityLocation" : "34.1026261,-118.3403754"
  },
  {
    "CelebrityName" : "Morgan Freeman",
    "CelebrityAddress" : "7021 Hollywood Blvd",
    "CelebrityLocation" : "34.1023128,-118.3427565"
  },
  {
    "CelebrityName" : "Mickey Mouse",
    "CelebrityAddress" : "6925 Hollywood Blvd",
    "CelebrityLocation" : "34.101765,-118.3408824"
  },
  {
    "CelebrityName" : " Clark Gable",
    "CelebrityAddress" : "1608 Vine Street",
    "CelebrityLocation" : "34.0999572,-118.3266486"
  },
  {
    "CelebrityName" : "Pierce Brosnan",
    "CelebrityAddress" : "7021 Hollywood Blvd",
    "CelebrityLocation" : "34.1023128,-118.3427565"
  },
  {
    "CelebrityName" : "Eddie Murphy",
    "CelebrityAddress" : "7000 Hollywood Blvd",
    "CelebrityLocation" : "34.1012777,-118.3416128"
  },
  {
    "CelebrityName" : " George Burns",
    "CelebrityAddress" : "1639 Vine Street",
    "CelebrityLocation" : "34.1009837,-118.3268649"
  },
  {
    "CelebrityName" : "Nicole Kidman",
    "CelebrityAddress" : "6801 Hollywood Blvd",
    "CelebrityLocation" : "34.1026261,-118.3403754"
  },
  {
    "CelebrityName" : " Roy Rogers",
    "CelebrityAddress" : "1752 Vine Street",
    "CelebrityLocation" : "34.1031195,-118.326669"
  },
  {
    "CelebrityName" : "John Travolta",
    "CelebrityAddress" : "6901 Hollywood Blvd",
    "CelebrityLocation" : "34.10155719999999,-118.3401645"
  },
  {
    "CelebrityName" : "Hilary Swank",
    "CelebrityAddress" : "6925 Hollywood Blvd",
    "CelebrityLocation" : "34.101765,-118.3408824"
  },
  {
    "CelebrityName" : " Alan Ladd",
    "CelebrityAddress" : "1601 Vine Street",
    "CelebrityLocation" : "34.0999567,-118.327134"
  },
  {
    "CelebrityName" : "Sammy Davis Jr.",
    "CelebrityAddress" : "6254 Hollywood Blvd",
    "CelebrityLocation" : "34.1016132,-118.325413"
  },
  {
    "CelebrityName" : "Hugh Jackman",
    "CelebrityAddress" : "6931 Hollywood Blvd",
    "CelebrityLocation" : "34.1019335,-118.3413562"
  },
  {
    "CelebrityName" : "David Hasselhoff",
    "CelebrityAddress" : "7018 Hollywood Blvd",
    "CelebrityLocation" : "34.101318,-118.3420857"
  },
  {
    "CelebrityName" : "Grace Kelly",
    "CelebrityAddress" : "6329 Hollywood Blvd",
    "CelebrityLocation" : "34.1016393,-118.3276512"
  },
  {
    "CelebrityName" : "Alfred Hitchcock",
    "CelebrityAddress" : "6506 Hollywood Blvd",
    "CelebrityLocation" : "34.1012354,-118.3314769"
  },
  {
    "CelebrityName" : "Montgomery Clift",
    "CelebrityAddress" : "6104 Hollywood Blvd",
    "CelebrityLocation" : "34.101245,-118.322947"
  },
  {
    "CelebrityName" : "Anthony Hopkins",
    "CelebrityAddress" : "6801 Hollywood Blvd",
    "CelebrityLocation" : "34.1026261,-118.3403754"
  },
  {
    "CelebrityName" : "Leonard Nimoy",
    "CelebrityAddress" : "6651 Hollywood Blvd",
    "CelebrityLocation" : "34.1015802,-118.3349638"
  },
  {
    "CelebrityName" : "Buster Keaton",
    "CelebrityAddress" : "6619 Hollywood Blvd",
    "CelebrityLocation" : "34.10187,-118.334127"
  },
  {
    "CelebrityName" : "Eddie (\"Rochester\") Anderson",
    "CelebrityAddress" : "6513 Hollywood Blvd",
    "CelebrityLocation" : "34.101867,-118.331498"
  },
  {
    "CelebrityName" : "Sylvester Stallone",
    "CelebrityAddress" : "6712 Hollywood Blvd",
    "CelebrityLocation" : "34.1014167,-118.3365429"
  },
  {
    "CelebrityName" : "BetteDavis",
    "CelebrityAddress" : "6225 Hollywood Blvd",
    "CelebrityLocation" : "34.1017951,-118.3254533"
  },
  {
    "CelebrityName" : " Boris Karloff",
    "CelebrityAddress" : "1737 Vine Street",
    "CelebrityLocation" : "34.1027712,-118.3267039"
  },
  {
    "CelebrityName" : " Shirley Temple",
    "CelebrityAddress" : "1500 Vine Street",
    "CelebrityLocation" : "34.0983192,-118.3263026"
  },
  {
    "CelebrityName" : "Harrison Ford",
    "CelebrityAddress" : "6801 Hollywood Blvd",
    "CelebrityLocation" : "34.1026261,-118.3403754"
  },
  {
    "CelebrityName" : " Paul McCartney",
    "CelebrityAddress" : "1750 Vine Street",
    "CelebrityLocation" : "34.1032104,-118.326293"
  },
  {
    "CelebrityName" : "Neil Patrick Harris",
    "CelebrityAddress" : "6243 Hollywood Blvd",
    "CelebrityLocation" : "34.101642,-118.3255721"
  },
  {
    "CelebrityName" : "John Lithgow",
    "CelebrityAddress" : "6666 Hollywood Blvd",
    "CelebrityLocation" : "34.1015485,-118.3354444"
  },
  {
    "CelebrityName" : "William Shatner",
    "CelebrityAddress" : "6901 Hollywood Blvd",
    "CelebrityLocation" : "34.10155719999999,-118.3401645"
  },
  {
    "CelebrityName" : "Will Rogers",
    "CelebrityAddress" : "6401 Hollywood Blvd",
    "CelebrityLocation" : "34.101877,-118.32977"
  },
###




  {
    "CelebrityName" : " Henry Fonda",
    "CelebrityAddress" : "1601 Vine Street",
    "CelebrityLocation" : "34.0999567,-118.327134"
  },
  {
    "CelebrityName" : "Carroll O'Connor",
    "CelebrityAddress" : "7080 Hollywood Blvd",
    "CelebrityLocation" : "34.1011481,-118.344414"
  },
  {
    "CelebrityName" : " Judy Garland",
    "CelebrityAddress" : "1715 Vine Street",
    "CelebrityLocation" : "34.1019495,-118.3266987"
  },
  {
    "CelebrityName" : "William Powell",
    "CelebrityAddress" : "1636 Vine Street",
    "CelebrityLocation" : "34.1004716,-118.3266483"
  },
  {
    "CelebrityName" : "Crystal Gayle",
    "CelebrityAddress" : "1515 Vine Street",
    "CelebrityLocation" : "34.0985306,-118.3266821"
  },
  {
    "CelebrityName" : "Julie Andrews",
    "CelebrityAddress" : "6901 Hollywood Blvd",
    "CelebrityLocation" : "34.10155719999999,-118.3401645"
  },
  {
    "CelebrityName" : "Frank Capra",
    "CelebrityAddress" : "6614 Hollywood Blvd",
    "CelebrityLocation" : "34.101275,-118.333729"
  },
  {
    "CelebrityName" : "Mickey Rooney",
    "CelebrityAddress" : "6801 Hollywood Blvd",
    "CelebrityLocation" : "34.1026261,-118.3403754"
  },
  {
    "CelebrityName" : "Ingrid Bergman",
    "CelebrityAddress" : "6759 Hollywood Blvd",
    "CelebrityLocation" : "34.101697,-118.3378324"
  },
  {
    "CelebrityName" : " Cary Grant",
    "CelebrityAddress" : "1610 Vine Street",
    "CelebrityLocation" : "34.099994,-118.3266484"
  },
  {
    "CelebrityName" : "Tom Hanks",
    "CelebrityAddress" : "7000 Hollywood Blvd",
    "CelebrityLocation" : "34.1012777,-118.3416128"
  },
  {
    "CelebrityName" : "Steven Spielberg",
    "CelebrityAddress" : "6801 Hollywood Blvd",
    "CelebrityLocation" : "34.1026261,-118.3403754"
  },
  {
    "CelebrityName" : "Bob Hope",
    "CelebrityAddress" : "6541 Hollywood Blvd",
    "CelebrityLocation" : "34.1018427,-118.3326329"
  },
  {
    "CelebrityName" : "Janis Joplin",
    "CelebrityAddress" : "6751 Hollywood Blvd",
    "CelebrityLocation" : "34.1017702,-118.3376512"
  },
  {
    "CelebrityName" : "Bill Cosby",
    "CelebrityAddress" : "6930 Hollywood Blvd",
    "CelebrityLocation" : "34.101156,-118.340964"
  },
  {
    "CelebrityName" : "Paul Newman",
    "CelebrityAddress" : "7050 Hollywood Blvd",
    "CelebrityLocation" : "34.1015281,-118.3433203"
  },
  {
    "CelebrityName" : "Vivien Leigh",
    "CelebrityAddress" : "6773 Hollywood Blvd",
    "CelebrityLocation" : "34.1015615,-118.3381017"
  },
  {
    "CelebrityName" : "Fred MacMurray",
    "CelebrityAddress" : "6412 Hollywood Blvd",
    "CelebrityLocation" : "34.1015788,-118.3301313"
  },
  {
    "CelebrityName" : "Jennifer Aniston",
    "CelebrityAddress" : "6270 Hollywood Blvd",
    "CelebrityLocation" : "34.1016111,-118.3258694"
  },
  {
    "CelebrityName" : "The Lone Ranger",
    "CelebrityAddress" : "6914 Hollywood Blvd",
    "CelebrityLocation" : "34.10152850000001,-118.340459"
  },
  {
    "CelebrityName" : "Tim Allen",
    "CelebrityAddress" : "6834 Hollywood Blvd",
    "CelebrityLocation" : "34.101323,-118.339741"
  },
  {
    "CelebrityName" : "Peter Lorre",
    "CelebrityAddress" : "6619 Hollywood Blvd",
    "CelebrityLocation" : "34.10187,-118.334127"
  },
  {
    "CelebrityName" : "Dick Van Dyke",
    "CelebrityAddress" : "7021 Hollywood Blvd",
    "CelebrityLocation" : "34.1023128,-118.3427565"
  },
  {
    "CelebrityName" : "Shania Twain",
    "CelebrityAddress" : "6834 Hollywood Blvd",
    "CelebrityLocation" : "34.101323,-118.339741"
  },
  {
    "CelebrityName" : "Michelle Pfeiffer",
    "CelebrityAddress" : "6801 Hollywood Blvd",
    "CelebrityLocation" : "34.1026261,-118.3403754"
  },
  {
    "CelebrityName" : "Jennifer Lopez",
    "CelebrityAddress" : "6262 Hollywood Blvd",
    "CelebrityLocation" : "34.1016122,-118.3256368"
  },
  {
    "CelebrityName" : "The Back Street Boys",
    "CelebrityAddress" : "7072 Hollywood Blvd",
    "CelebrityLocation" : "34.1015205,-118.3440837"
  },
  {
    "CelebrityName" : "Bela Lugosi",
    "CelebrityAddress" : "6340 Hollywood Blvd",
    "CelebrityLocation" : "34.1011809,-118.327933"
  },
  {
    "CelebrityName" : " Ray Milland",
    "CelebrityAddress" : "1621 Vine Street",
    "CelebrityLocation" : "34.1002541,-118.3266849"
  },
  {
    "CelebrityName" : "Diana Ross",
    "CelebrityAddress" : "6712 Hollywood Blvd",
    "CelebrityLocation" : "34.1014167,-118.3365429"
  },
  {
    "CelebrityName" : "Jamie Lee Curtis",
    "CelebrityAddress" : "6600 Hollywood Blvd",
    "CelebrityLocation" : "34.101256,-118.333369"
  },
  {
    "CelebrityName" : " Bing Crosby",
    "CelebrityAddress" : "1611 Vine Street",
    "CelebrityLocation" : "34.0999941,-118.3266853"
  },
  {
    "CelebrityName" : "Kiefer Sutherland",
    "CelebrityAddress" : "7024 Hollywood Blvd",
    "CelebrityLocation" : "34.101279,-118.342172"
  },
  {
    "CelebrityName" : "Carol Burnett",
    "CelebrityAddress" : "6439 Hollywood Blvd",
    "CelebrityLocation" : "34.1016096,-118.3302792"
  },
  {
    "CelebrityName" : "Fred Astaire",
    "CelebrityAddress" : "6756 Hollywood Blvd",
    "CelebrityLocation" : "34.1014623,-118.3377258"
  },
  {
    "CelebrityName" : " James Dean",
    "CelebrityAddress" : "1719 Vine Street",
    "CelebrityLocation" : "34.102074,-118.3266998"
  },
  {
    "CelebrityName" : " James Stewart",
    "CelebrityAddress" : "1708 Vine Street",
    "CelebrityLocation" : "34.1018216,-118.3266595"
  },
  {
    "CelebrityName" : "Tyrone Power",
    "CelebrityAddress" : "6747 Hollywood Blvd",
    "CelebrityLocation" : "34.1015634,-118.3373093"
  },
  {
    "CelebrityName" : "Keanu Reeves",
    "CelebrityAddress" : "6801 Hollywood Blvd",
    "CelebrityLocation" : "34.1026261,-118.3403754"
  },
  {
    "CelebrityName" : "Gregory Peck",
    "CelebrityAddress" : "6100 Hollywood Blvd",
    "CelebrityLocation" : "34.1016341,-118.3223743"
  },
  {
    "CelebrityName" : "Fleetwood Mac",
    "CelebrityAddress" : "6608 Hollywood Blvd",
    "CelebrityLocation" : "34.101255,-118.333596"
  },
  {
    "CelebrityName" : "Luis Miguel",
    "CelebrityAddress" : "7060 Hollywood Blvd",
    "CelebrityLocation" : "34.1012789,-118.3437155"
  },
  {
    "CelebrityName" : "Margaret O'Brien",
    "CelebrityAddress" : "6600 Hollywood Blvd",
    "CelebrityLocation" : "34.101256,-118.333369"
  },
  {
    "CelebrityName" : "Bruce Willis",
    "CelebrityAddress" : "6915 Hollywood Blvd",
    "CelebrityLocation" : "34.1015611,-118.340782"
  },
  {
    "CelebrityName" : "Alec Baldwin",
    "CelebrityAddress" : "6352 Hollywood Blvd",
    "CelebrityLocation" : "34.101598,-118.3284299"
  },
  {
    "CelebrityName" : "George Raft",
    "CelebrityAddress" : "6153 Hollywood Blvd",
    "CelebrityLocation" : "34.1016551,-118.3239034"
  },
  {
    "CelebrityName" : "Lena Horne",
    "CelebrityAddress" : "6282 Hollywood Blvd",
    "CelebrityLocation" : "34.1014522,-118.3262591"
  },
  {
    "CelebrityName" : "Michael J. Fox",
    "CelebrityAddress" : "7021 Hollywood Blvd",
    "CelebrityLocation" : "34.1023128,-118.3427565"
  },
  {
    "CelebrityName" : "Tom Cruise",
    "CelebrityAddress" : "6912 Hollywood Blvd",
    "CelebrityLocation" : "34.101158,-118.340454"
  },
  {
    "CelebrityName" : "Katharine Hepburn",
    "CelebrityAddress" : "6284 Hollywood Blvd",
    "CelebrityLocation" : "34.1016116,-118.3262921"
  },
  {
    "CelebrityName" : "Lucille Ball",
    "CelebrityAddress" : "6100 Hollywood Blvd",
    "CelebrityLocation" : "34.1016341,-118.3223743"
  },
  {
    "CelebrityName" : " Jimmy Durante",
    "CelebrityAddress" : "1600 Vine Street",
    "CelebrityLocation" : "34.1001434,-118.3264673"
  },
  {
    "CelebrityName" : "Stan Lee",
    "CelebrityAddress" : "7072 Hollywood Blvd",
    "CelebrityLocation" : "34.1015205,-118.3440837"
  },
###





  {
    "CelebrityName" : " Donna Reed",
    "CelebrityAddress" : "1612 Vine Street",
    "CelebrityLocation" : "34.1000307,-118.3266482"
  },
  {
    "CelebrityName" : "Danny DeVito",
    "CelebrityAddress" : "6906 Hollywood Blvd",
    "CelebrityLocation" : "34.1015276,-118.3403077"
  },
  {
    "CelebrityName" : " William Holden",
    "CelebrityAddress" : "1651 Vine Street",
    "CelebrityLocation" : "34.1007899,-118.3266857"
  },
  {
    "CelebrityName" : "Elizabeth Taylor",
    "CelebrityAddress" : "6336 Hollywood Blvd",
    "CelebrityLocation" : "34.1013306,-118.3278499"
  },
  {
    "CelebrityName" : "Jackie Gleason",
    "CelebrityAddress" : "6300 Hollywood Blvd",
    "CelebrityLocation" : "34.1014324,-118.3270755"
  },
  {
    "CelebrityName" : "Walter Brennan",
    "CelebrityAddress" : "6501 Hollywood Blvd",
    "CelebrityLocation" : "34.101895,-118.331205"
  },
  {
    "CelebrityName" : "Halle Berry",
    "CelebrityAddress" : "6801 Hollywood Blvd",
    "CelebrityLocation" : "34.1026261,-118.3403754"
  },
  {
    "CelebrityName" : "Reba McEntire",
    "CelebrityAddress" : "7018 Hollywood Blvd",
    "CelebrityLocation" : "34.101318,-118.3420857"
  },
  {
    "CelebrityName" : "Jerry Lewis",
    "CelebrityAddress" : "6821 Hollywood Blvd",
    "CelebrityLocation" : "34.1015594,-118.3392858"
  },
  {
    "CelebrityName" : "Adam Sandler",
    "CelebrityAddress" : "6262 Hollywood Blvd",
    "CelebrityLocation" : "34.1016122,-118.3256368"
  },
  {
    "CelebrityName" : "Kevin Costner",
    "CelebrityAddress" : "6801 Hollywood Blvd",
    "CelebrityLocation" : "34.1026261,-118.3403754"
  },
  {
    "CelebrityName" : " Neil Diamond",
    "CelebrityAddress" : "1750 Vine Street",
    "CelebrityLocation" : "34.1032104,-118.326293"
  },
  {
    "CelebrityName" : "Douglas Fairbanks Jr.",
    "CelebrityAddress" : "6318 Hollywood Blvd",
    "CelebrityLocation" : "34.1016115,-118.3272722"
  },
  {
    "CelebrityName" : " Audrey Hepburn",
    "CelebrityAddress" : "1652 Vine Street",
    "CelebrityLocation" : "34.1007655,-118.3266488"
  },
  {
    "CelebrityName" : "Stan Laurel",
    "CelebrityAddress" : "7021 Hollywood Blvd",
    "CelebrityLocation" : "34.1023128,-118.3427565"
  },
  {
    "CelebrityName" : "Wesley Snipes",
    "CelebrityAddress" : "7018 Hollywood Blvd",
    "CelebrityLocation" : "34.101318,-118.3420857"
  },
  {
    "CelebrityName" : "Elizabeth Montgomery",
    "CelebrityAddress" : "6533 Hollywood Blvd",
    "CelebrityLocation" : "34.101874,-118.3323245"
  },
  {
    "CelebrityName" : " Lauren Bacall",
    "CelebrityAddress" : "1724 Vine Street",
    "CelebrityLocation" : "34.1026852,-118.3266665"
  },
  {
    "CelebrityName" : " Robert Cummings",
    "CelebrityAddress" : "1758 Vine Street",
    "CelebrityLocation" : "34.1031546,-118.3266692"
  },
  {
    "CelebrityName" : " Oliver Hardy",
    "CelebrityAddress" : "1500 Vine Street",
    "CelebrityLocation" : "34.0983192,-118.3263026"
  },
  {
    "CelebrityName" : " John Wayne",
    "CelebrityAddress" : "1541 Vine Street",
    "CelebrityLocation" : "34.0988203,-118.3266836"
  },
  {
    "CelebrityName" : "Errol Flynn",
    "CelebrityAddress" : "7008 Hollywood Blvd",
    "CelebrityLocation" : "34.1015304,-118.3417694"
  },
  {
    "CelebrityName" : "Ellen DeGeneres",
    "CelebrityAddress" : "6270 Hollywood Blvd",
    "CelebrityLocation" : "34.1016111,-118.3258694"
  },
  {
    "CelebrityName" : "W.C. Fields",
    "CelebrityAddress" : "7004 Hollywood Blvd",
    "CelebrityLocation" : "34.1015304,-118.3416397"
  },
  {
    "CelebrityName" : "Dean Martin",
    "CelebrityAddress" : "6519 Hollywood Blvd",
    "CelebrityLocation" : "34.1016023,-118.3317172"
  },
  {
    "CelebrityName" : "Samuel L. Jackson",
    "CelebrityAddress" : "7018 Hollywood Blvd",
    "CelebrityLocation" : "34.101318,-118.3420857"
  },
  {
    "CelebrityName" : "Mary Pickford",
    "CelebrityAddress" : "6280 Hollywood Blvd",
    "CelebrityLocation" : "34.1014005,-118.3261774"
  },
  {
    "CelebrityName" : "Spencer Tracy",
    "CelebrityAddress" : "6814 Hollywood Blvd",
    "CelebrityLocation" : "34.1015296,-118.3387698"
  },
  {
    "CelebrityName" : "Wallace Beery",
    "CelebrityAddress" : "7000 Hollywood Blvd",
    "CelebrityLocation" : "34.1012777,-118.3416128"
  },
  {
    "CelebrityName" : " Barbara Stanwyck",
    "CelebrityAddress" : "1751 Vine Street",
    "CelebrityLocation" : "34.1030815,-118.3267057"
  },
  {
    "CelebrityName" : "Gary Cooper",
    "CelebrityAddress" : "6243 Hollywood Blvd",
    "CelebrityLocation" : "34.101642,-118.3255721"
  },
  {
    "CelebrityName" : "Stevie Wonder",
    "CelebrityAddress" : "7050 Hollywood Blvd",
    "CelebrityLocation" : "34.1015281,-118.3433203"
  },
  {
    "CelebrityName" : "Bette White",
    "CelebrityAddress" : "6747 Hollywood Blvd",
    "CelebrityLocation" : "34.1015634,-118.3373093"
  },
  {
    "CelebrityName" : "Matt Damon",
    "CelebrityAddress" : "6801 Hollywood Blvd",
    "CelebrityLocation" : "34.1026261,-118.3403754"
  },
  {
    "CelebrityName" : "Patrick Swayze",
    "CelebrityAddress" : "7021 Hollywood Blvd",
    "CelebrityLocation" : "34.1023128,-118.3427565"
  },
  {
    "CelebrityName" : " Mickey Rooney",
    "CelebrityAddress" : "1718 Vine Street",
    "CelebrityLocation" : "34.102257,-118.326267"
  },
  {
    "CelebrityName" : "Andy Griffith",
    "CelebrityAddress" : "6418 Hollywood Blvd",
    "CelebrityLocation" : "34.101282,-118.330423"
  },
  {
    "CelebrityName" : "Renee Zellweger",
    "CelebrityAddress" : "7000 Hollywood Blvd",
    "CelebrityLocation" : "34.1012777,-118.3416128"
  },
  {
    "CelebrityName" : "Queen Latifah",
    "CelebrityAddress" : "6915 Hollywood Blvd",
    "CelebrityLocation" : "34.1015611,-118.340782"
  },
  {
    "CelebrityName" : "Sidney Poitier",
    "CelebrityAddress" : "7065 Hollywood Blvd",
    "CelebrityLocation" : "34.1019831,-118.343994"
  },
  {
    "CelebrityName" : " Deborah Kerr",
    "CelebrityAddress" : "1709 Vine Street",
    "CelebrityLocation" : "34.1018211,-118.3266963"
  },
  {
    "CelebrityName" : "Arnold Schwarzenegger",
    "CelebrityAddress" : "6764 Hollywood Blvd",
    "CelebrityLocation" : "34.1012808,-118.3380203"
  },
  {
    "CelebrityName" : "Robert Wagner",
    "CelebrityAddress" : "7021 Hollywood Blvd",
    "CelebrityLocation" : "34.1023128,-118.3427565"
  },
  {
    "CelebrityName" : "Elton John",
    "CelebrityAddress" : "6915 Hollywood Blvd",
    "CelebrityLocation" : "34.1015611,-118.340782"
  },
  {
    "CelebrityName" : "Sonny Cher",
    "CelebrityAddress" : "7018 Hollywood Blvd",
    "CelebrityLocation" : "34.101318,-118.3420857"
  },
  {
    "CelebrityName" : " Johnny Carson",
    "CelebrityAddress" : "1751 Vine Street",
    "CelebrityLocation" : "34.1030815,-118.3267057"
  },
  {
    "CelebrityName" : " The Beach Boys",
    "CelebrityAddress" : "1500 Vine Street",
    "CelebrityLocation" : "34.0983192,-118.3263026"
  },
  {
    "CelebrityName" : "James Cagney",
    "CelebrityAddress" : "6504 Hollywood Blvd",
    "CelebrityLocation" : "34.1012872,-118.3313404"
  },
  {
    "CelebrityName" : "Tony Curtis",
    "CelebrityAddress" : "6817 Hollywood Blvd",
    "CelebrityLocation" : "34.1015599,-118.3389371"
  },
  {
    "CelebrityName" : "Kirk Douglas",
    "CelebrityAddress" : "6263 Hollywood Blvd",
    "CelebrityLocation" : "34.1019057,-118.3264766"
  },
  {
    "CelebrityName" : "Nicolas Cage",
    "CelebrityAddress" : "7021 Hollywood Blvd",
    "CelebrityLocation" : "34.1023128,-118.3427565"
  },
  {
    "CelebrityName" : "John Belushi",
    "CelebrityAddress" : "6355 Hollywood Blvd",
    "CelebrityLocation" : "34.1016251,-118.3286225"
  },
  {
    "CelebrityName" : "Burt Reynolds",
    "CelebrityAddress" : "6838 Hollywood Blvd",
    "CelebrityLocation" : "34.10111,-118.339822"
  },
  {
    "CelebrityName" : "Charlize Theron",
    "CelebrityAddress" : "6801 Hollywood Blvd",
    "CelebrityLocation" : "34.1026261,-118.3403754"
  },
  {
    "CelebrityName" : " Michael Landon",
    "CelebrityAddress" : "1500 Vine Street",
    "CelebrityLocation" : "34.0983192,-118.3263026"
  },
  {
    "CelebrityName" : " Jack Benny",
    "CelebrityAddress" : "1505 Vine Street",
    "CelebrityLocation" : "34.0984467,-118.3266806"
  },
  {
    "CelebrityName" : " Mae West",
    "CelebrityAddress" : "1560 Vine Street",
    "CelebrityLocation" : "34.0993898,-118.3266477"
  },
  {
    "CelebrityName" : "Britney Spears",
    "CelebrityAddress" : "6801 Hollywood Blvd",
    "CelebrityLocation" : "34.1026261,-118.3403754"
  },
  {
    "CelebrityName" : "The Muppets",
    "CelebrityAddress" : "6834 Hollywood Blvd",
    "CelebrityLocation" : "34.101323,-118.339741"
  },
  {
    "CelebrityName" : "Ben Kingsley",
    "CelebrityAddress" : "6931 Hollywood Blvd",
    "CelebrityLocation" : "34.1019335,-118.3413562"
  },
  {
    "CelebrityName" : "Don Knotts",
    "CelebrityAddress" : "7083 Hollywood Blvd",
    "CelebrityLocation" : "34.1018215,-118.3442368"
  },
###



  {
    "CelebrityName" : "Meryl Streep",
    "CelebrityAddress" : "7018 Hollywood Blvd",
    "CelebrityLocation" : "34.101318,-118.3420857"
  },
  {
    "CelebrityName" : "Liberace",
    "CelebrityAddress" : "6739 Hollywood Blvd",
    "CelebrityLocation" : "34.1017003,-118.3371117"
  },
  {
    "CelebrityName" : " Charlton Heston",
    "CelebrityAddress" : "1628 Vine Street",
    "CelebrityLocation" : "34.1003247,-118.3266481"
  },
  {
    "CelebrityName" : " Roy Orbison",
    "CelebrityAddress" : "1750 Vine Street",
    "CelebrityLocation" : "34.1032104,-118.326293"
  },
  {
    "CelebrityName" : "Regis Philbin",
    "CelebrityAddress" : "6834 Hollywood Blvd",
    "CelebrityLocation" : "34.101323,-118.339741"
  },
  {
    "CelebrityName" : "Gene Kelly",
    "CelebrityAddress" : "6153 Hollywood Blvd",
    "CelebrityLocation" : "34.1016551,-118.3239034"
  },
  {
    "CelebrityName" : "Dennis Quaid",
    "CelebrityAddress" : "7008 Hollywood Blvd",
    "CelebrityLocation" : "34.1015304,-118.3417694"
  },
  {
    "CelebrityName" : "Billy Joel",
    "CelebrityAddress" : "6233 Hollywood Blvd",
    "CelebrityLocation" : "34.102001,-118.325867"
  },
  {
    "CelebrityName" : "Jean Harlow",
    "CelebrityAddress" : "6910 Hollywood Blvd",
    "CelebrityLocation" : "34.1015282,-118.340403"
  },
  {
    "CelebrityName" : "Betty Grable",
    "CelebrityAddress" : "6525 Hollywood Blvd",
    "CelebrityLocation" : "34.1017883,-118.3319181"
  },
  {
    "CelebrityName" : " Harold Lloyd",
    "CelebrityAddress" : "1503 Vine Street",
    "CelebrityLocation" : "34.0984048,-118.3269551"
  },
  {
    "CelebrityName" : "Roger Moore",
    "CelebrityAddress" : "7007 Hollywood Blvd",
    "CelebrityLocation" : "26.0097234,-80.2284091"
  },
  {
    "CelebrityName" : " Marlon Brando",
    "CelebrityAddress" : "1765 Vine Street",
    "CelebrityLocation" : "34.1031774,-118.3267062"
  },
  {
    "CelebrityName" : "Glenn Close",
    "CelebrityAddress" : "7000 Hollywood Blvd",
    "CelebrityLocation" : "34.1012777,-118.3416128"
  },
  {
    "CelebrityName" : "Dolly Parton",
    "CelebrityAddress" : "6712 Hollywood Blvd",
    "CelebrityLocation" : "34.1014167,-118.3365429"
  },
  {
    "CelebrityName" : "Richard Burton",
    "CelebrityAddress" : "6336 Hollywood Blvd",
    "CelebrityLocation" : "34.1013306,-118.3278499"
  },
  {
    "CelebrityName" : "Humphrey Bogart",
    "CelebrityAddress" : "6322 Hollywood Blvd",
    "CelebrityLocation" : "34.10161,-118.3274859"
  },
  {
    "CelebrityName" : "Doris Day",
    "CelebrityAddress" : "6735 Hollywood Blvd",
    "CelebrityLocation" : "34.1018203,-118.3370363"
  },
  {
    "CelebrityName" : "Al Jolson",
    "CelebrityAddress" : "6622 Hollywood Blvd",
    "CelebrityLocation" : "34.1012646,-118.3340304"
  },
  {
    "CelebrityName" : "Milton Berle",
    "CelebrityAddress" : "6263 Hollywood Blvd",
    "CelebrityLocation" : "34.1019057,-118.3264766"
  },
  {
    "CelebrityName" : "Nat \"King\" Cole",
    "CelebrityAddress" : "6659 Hollywood Blvd",
    "CelebrityLocation" : "34.1015791,-118.3351234"
  },
  {
    "CelebrityName" : "Greta Garbo",
    "CelebrityAddress" : "6901 Hollywood Blvd",
    "CelebrityLocation" : "34.10155719999999,-118.3401645"
  },
  {
    "CelebrityName" : "Drew Barrymore",
    "CelebrityAddress" : "6925 Hollywood Blvd",
    "CelebrityLocation" : "34.101765,-118.3408824"
  },
  {
    "CelebrityName" : "Mary Tyler Moore",
    "CelebrityAddress" : "7021 Hollywood Blvd",
    "CelebrityLocation" : "34.1023128,-118.3427565"
  },
  {
    "CelebrityName" : "Eddie Cantor",
    "CelebrityAddress" : "6648 Hollywood Blvd",
    "CelebrityLocation" : "34.10155140000001,-118.3348455"
  },
  {
    "CelebrityName" : "Red Skelton",
    "CelebrityAddress" : "6650 Hollywood Blvd",
    "CelebrityLocation" : "34.101231,-118.335263"
  },
  {
    "CelebrityName" : "Jack Nicholson",
    "CelebrityAddress" : "6925 Hollywood Blvd",
    "CelebrityLocation" : "34.101765,-118.3408824"
  },
  {
    "CelebrityName" : "Charles Chaplin",
    "CelebrityAddress" : "6751 Hollywood Blvd",
    "CelebrityLocation" : "34.1017702,-118.3376512"
  },
  {
    "CelebrityName" : "Sandra Bullock",
    "CelebrityAddress" : "6801 Hollywood Blvd",
    "CelebrityLocation" : "34.1026261,-118.3403754"
  },
  {
    "CelebrityName" : "Ronald Reagan",
    "CelebrityAddress" : "6374 Hollywood Blvd",
    "CelebrityLocation" : "34.101332,-118.329136"
  },
  {
    "CelebrityName" : "Barbra Streisand",
    "CelebrityAddress" : "6925 Hollywood Blvd",
    "CelebrityLocation" : "34.101765,-118.3408824"
  },
  {
    "CelebrityName" : "Jackie Chan",
    "CelebrityAddress" : "6801 Hollywood Blvd",
    "CelebrityLocation" : "34.1026261,-118.3403754"
  },
  {
    "CelebrityName" : "Rock Hudson",
    "CelebrityAddress" : "6116 Hollywood Blvd",
    "CelebrityLocation" : "34.1016318,-118.3230455"
  },
  {
    "CelebrityName" : "Edward G. Robinson",
    "CelebrityAddress" : "6235 Hollywood Blvd",
    "CelebrityLocation" : "34.1016429,-118.3254913"
  },
  {
    "CelebrityName" : "Cameron Diaz",
    "CelebrityAddress" : "6712 Hollywood Blvd",
    "CelebrityLocation" : "34.1014167,-118.3365429"
  },
  {
    "CelebrityName" : "Reese Witherspoon",
    "CelebrityAddress" : "6262 Hollywood Blvd",
    "CelebrityLocation" : "34.1016122,-118.3256368"
  },
  {
    "CelebrityName" : " Garth Brooks",
    "CelebrityAddress" : "1750 Vine Street",
    "CelebrityLocation" : "34.1032104,-118.326293"
  },
  {
    "CelebrityName" : "Dorothy Lamour",
    "CelebrityAddress" : "6332 Hollywood Blvd",
    "CelebrityLocation" : "34.1016077,-118.3277404"
  },
  {
    "CelebrityName" : "Victor Mature",
    "CelebrityAddress" : "6780 Hollywood Blvd",
    "CelebrityLocation" : "34.1013355,-118.3384643"
  },
  {
    "CelebrityName" : "Douglas Fairbanks",
    "CelebrityAddress" : "7022 Hollywood Blvd",
    "CelebrityLocation" : "34.1015298,-118.3422997"
  }
]